bcd_seven_seg/dump.vcd
$date
	Thu Jan 22 08:06:38 2026
$end
$version
	Icarus Verilog
$end
$timescale
	1s
$end
$scope module bcd_seven_seg_tb $end
$var wire 7 ! seg [6:0] $end
$var reg 3 " D [2:0] $end
$scope module uut $end
$var wire 3 # D [2:0] $end
$var reg 7 $ seg [6:0] $end
$upscope $end
$upscope $end
$enddefinitions $end
$comment Show the parameter values. $end
$dumpall
$end
#0
$dumpvars
b1111110 $
b0 #
b0 "
b1111110 !
$end
#10
b110000 !
b110000 $
b1 "
b1 #
#20
b1101101 !
b1101101 $
b10 "
b10 #
#30
b1111001 !
b1111001 $
b11 "
b11 #
#40
b110011 !
b110011 $
b100 "
b100 #
#50
b1011011 !
b1011011 $
b101 "
b101 #
#60
b1011111 !
b1011111 $
b110 "
b110 #
#70
b1110000 !
b1110000 $
b111 "
b111 #
